simulation/qsim/Elevador.msim.vcd
$comment
	File created using the following command:
		vcd file Elevador.msim.vcd -direction
$end
$date
	Fri Dec 04 16:34:02 2020
$end
$version
	ModelSim Version 2020.1
$end
$timescale
	1ps
$end

$scope module Elevador_vlg_vec_tst $end
$var reg 16 ! botoes [15:0] $end
$var reg 1 " cartao_acesso $end
$var reg 1 # clear $end
$var reg 1 $ clock $end
$var reg 1 % fechar $end
$var reg 1 & segurar $end
$var reg 1 ' sensor $end
$var wire 1 ( andarprovisorio [3] $end
$var wire 1 ) andarprovisorio [2] $end
$var wire 1 * andarprovisorio [1] $end
$var wire 1 + andarprovisorio [0] $end
$var wire 1 , display_dez [6] $end
$var wire 1 - display_dez [5] $end
$var wire 1 . display_dez [4] $end
$var wire 1 / display_dez [3] $end
$var wire 1 0 display_dez [2] $end
$var wire 1 1 display_dez [1] $end
$var wire 1 2 display_dez [0] $end
$var wire 1 3 display_uni [6] $end
$var wire 1 4 display_uni [5] $end
$var wire 1 5 display_uni [4] $end
$var wire 1 6 display_uni [3] $end
$var wire 1 7 display_uni [2] $end
$var wire 1 8 display_uni [1] $end
$var wire 1 9 display_uni [0] $end
$var wire 1 : ledbotao [15] $end
$var wire 1 ; ledbotao [14] $end
$var wire 1 < ledbotao [13] $end
$var wire 1 = ledbotao [12] $end
$var wire 1 > ledbotao [11] $end
$var wire 1 ? ledbotao [10] $end
$var wire 1 @ ledbotao [9] $end
$var wire 1 A ledbotao [8] $end
$var wire 1 B ledbotao [7] $end
$var wire 1 C ledbotao [6] $end
$var wire 1 D ledbotao [5] $end
$var wire 1 E ledbotao [4] $end
$var wire 1 F ledbotao [3] $end
$var wire 1 G ledbotao [2] $end
$var wire 1 H ledbotao [1] $end
$var wire 1 I ledbotao [0] $end

$scope module i1 $end
$var wire 1 J gnd $end
$var wire 1 K vcc $end
$var wire 1 L unknown $end
$var tri1 1 M devclrn $end
$var tri1 1 N devpor $end
$var tri1 1 O devoe $end
$var wire 1 P fechar~input_o $end
$var wire 1 Q ledbotao[0]~output_o $end
$var wire 1 R ledbotao[1]~output_o $end
$var wire 1 S ledbotao[2]~output_o $end
$var wire 1 T ledbotao[3]~output_o $end
$var wire 1 U ledbotao[4]~output_o $end
$var wire 1 V ledbotao[5]~output_o $end
$var wire 1 W ledbotao[6]~output_o $end
$var wire 1 X ledbotao[7]~output_o $end
$var wire 1 Y ledbotao[8]~output_o $end
$var wire 1 Z ledbotao[9]~output_o $end
$var wire 1 [ ledbotao[10]~output_o $end
$var wire 1 \ ledbotao[11]~output_o $end
$var wire 1 ] ledbotao[12]~output_o $end
$var wire 1 ^ ledbotao[13]~output_o $end
$var wire 1 _ ledbotao[14]~output_o $end
$var wire 1 ` ledbotao[15]~output_o $end
$var wire 1 a display_uni[0]~output_o $end
$var wire 1 b display_uni[1]~output_o $end
$var wire 1 c display_uni[2]~output_o $end
$var wire 1 d display_uni[3]~output_o $end
$var wire 1 e display_uni[4]~output_o $end
$var wire 1 f display_uni[5]~output_o $end
$var wire 1 g display_uni[6]~output_o $end
$var wire 1 h display_dez[0]~output_o $end
$var wire 1 i display_dez[1]~output_o $end
$var wire 1 j display_dez[2]~output_o $end
$var wire 1 k display_dez[3]~output_o $end
$var wire 1 l display_dez[4]~output_o $end
$var wire 1 m display_dez[5]~output_o $end
$var wire 1 n display_dez[6]~output_o $end
$var wire 1 o andarprovisorio[0]~output_o $end
$var wire 1 p andarprovisorio[1]~output_o $end
$var wire 1 q andarprovisorio[2]~output_o $end
$var wire 1 r andarprovisorio[3]~output_o $end
$var wire 1 s clear~input_o $end
$var wire 1 t clock~input_o $end
$var wire 1 u comb_13|ck~combout $end
$var wire 1 v cartao_acesso~input_o $end
$var wire 1 w comb_9|comb_19|Mux0~0_combout $end
$var wire 1 x botoes[2]~input_o $end
$var wire 1 y comb_5|cl~1_combout $end
$var wire 1 z comb_6|comb_7|s1~0_combout $end
$var wire 1 { comb_9|comb_19|Mux0~1_combout $end
$var wire 1 | comb_9|comb_19|Mux0~2_combout $end
$var wire 1 } botoes[3]~input_o $end
$var wire 1 ~ comb_5|cl~2_combout $end
$var wire 1 !! comb_6|comb_9|s1~0_combout $end
$var wire 1 "! botoes[4]~input_o $end
$var wire 1 #! comb_5|cl~3_combout $end
$var wire 1 $! comb_6|comb_11|s1~0_combout $end
$var wire 1 %! comb_9|comb_19|Mux0~3_combout $end
$var wire 1 &! botoes[5]~input_o $end
$var wire 1 '! comb_5|cl~4_combout $end
$var wire 1 (! comb_6|comb_13|s1~0_combout $end
$var wire 1 )! comb_5|cl~5_combout $end
$var wire 1 *! botoes[6]~input_o $end
$var wire 1 +! comb_6|comb_15|s1~0_combout $end
$var wire 1 ,! comb_9|comb_19|Mux0~4_combout $end
$var wire 1 -! comb_9|comb_19|Mux0~5_combout $end
$var wire 1 .! comb_9|comb_19|Mux0~6_combout $end
$var wire 1 /! comb_5|cl~6_combout $end
$var wire 1 0! botoes[7]~input_o $end
$var wire 1 1! comb_6|comb_17|s1~0_combout $end
$var wire 1 2! comb_9|comb_19|Mux0~7_combout $end
$var wire 1 3! comb_5|cl~8_combout $end
$var wire 1 4! botoes[9]~input_o $end
$var wire 1 5! comb_6|comb_21|s1~0_combout $end
$var wire 1 6! comb_5|cl~9_combout $end
$var wire 1 7! botoes[10]~input_o $end
$var wire 1 8! comb_6|comb_23|s1~0_combout $end
$var wire 1 9! comb_9|comb_19|Mux0~8_combout $end
$var wire 1 :! comb_9|comb_19|Mux0~9_combout $end
$var wire 1 ;! comb_5|cl~10_combout $end
$var wire 1 <! botoes[11]~input_o $end
$var wire 1 =! comb_6|comb_25|s1~0_combout $end
$var wire 1 >! comb_5|cl~11_combout $end
$var wire 1 ?! botoes[12]~input_o $end
$var wire 1 @! comb_6|comb_27|s1~0_combout $end
$var wire 1 A! comb_9|comb_19|Mux0~10_combout $end
$var wire 1 B! comb_5|cl~12_combout $end
$var wire 1 C! botoes[13]~input_o $end
$var wire 1 D! comb_6|comb_29|s1~0_combout $end
$var wire 1 E! comb_5|cl~13_combout $end
$var wire 1 F! botoes[14]~input_o $end
$var wire 1 G! comb_6|comb_31|s1~0_combout $end
$var wire 1 H! comb_9|comb_19|Mux0~11_combout $end
$var wire 1 I! comb_9|comb_19|Mux0~12_combout $end
$var wire 1 J! comb_9|comb_19|Mux0~13_combout $end
$var wire 1 K! comb_9|comb_19|Mux0~combout $end
$var wire 1 L! comb_15|comb_3|comb_5|Mux0~0_combout $end
$var wire 1 M! comb_15|comb_3|comb_5|Q~q $end
$var wire 1 N! comb_5|cl~14_combout $end
$var wire 1 O! botoes[15]~input_o $end
$var wire 1 P! comb_6|comb_33|s1~0_combout $end
$var wire 1 Q! comb_7|andar[2]~0_combout $end
$var wire 1 R! comb_7|andar[0]~1_combout $end
$var wire 1 S! comb_17|comb_18|comb_4|vaiUm~0_combout $end
$var wire 1 T! comb_17|comb_18|comb_4|vaiUm~1_combout $end
$var wire 1 U! comb_7|andar[2]~2_combout $end
$var wire 1 V! comb_7|andar[3]~3_combout $end
$var wire 1 W! comb_7|andar[3]~4_combout $end
$var wire 1 X! comb_7|andar[0]~9_combout $end
$var wire 1 Y! comb_17|comb_18|comb_5|saida~combout $end
$var wire 1 Z! comb_7|andar[1]~10_combout $end
$var wire 1 [! comb_17|comb_19|comb_6|vaiUm~0_combout $end
$var wire 1 \! comb_17|comb_19|comb_7|saida~combout $end
$var wire 1 ]! comb_15|comb_5|subir~q $end
$var wire 1 ^! comb_11|D[3]~1_combout $end
$var wire 1 _! comb_11|comb_10|Q~q $end
$var wire 1 `! comb_5|cl~0_combout $end
$var wire 1 a! botoes[1]~input_o $end
$var wire 1 b! comb_6|comb_5|s1~0_combout $end
$var wire 1 c! comb_8|comb_19|Mux0~0_combout $end
$var wire 1 d! comb_8|comb_19|Mux0~1_combout $end
$var wire 1 e! comb_8|comb_19|Mux0~2_combout $end
$var wire 1 f! comb_8|comb_19|Mux0~3_combout $end
$var wire 1 g! comb_8|comb_19|Mux0~4_combout $end
$var wire 1 h! comb_8|comb_19|Mux0~5_combout $end
$var wire 1 i! comb_8|comb_19|Mux0~6_combout $end
$var wire 1 j! comb_7|andar[3]~5_combout $end
$var wire 1 k! comb_8|comb_19|Mux0~7_combout $end
$var wire 1 l! comb_7|andar[3]~6_combout $end
$var wire 1 m! comb_7|andar[3]~7_combout $end
$var wire 1 n! comb_8|comb_19|Mux0~8_combout $end
$var wire 1 o! comb_8|comb_19|Mux0~9_combout $end
$var wire 1 p! comb_7|andar[3]~8_combout $end
$var wire 1 q! comb_8|fio[13]~0_combout $end
$var wire 1 r! comb_8|comb_19|Mux0~10_combout $end
$var wire 1 s! comb_8|comb_19|Mux0~11_combout $end
$var wire 1 t! comb_8|comb_19|Mux0~12_combout $end
$var wire 1 u! comb_8|comb_19|Mux0~13_combout $end
$var wire 1 v! comb_8|comb_19|Mux0~combout $end
$var wire 1 w! comb_15|comb_4|NP~combout $end
$var wire 1 x! comb_11|D[1]~0_combout $end
$var wire 1 y! comb_11|comb_6|Q~q $end
$var wire 1 z! comb_11|comb_8|Q~0_combout $end
$var wire 1 {! comb_11|comb_8|Q~q $end
$var wire 1 |! comb_5|cl~7_combout $end
$var wire 1 }! botoes[8]~input_o $end
$var wire 1 ~! comb_6|comb_19|s1~0_combout $end
$var wire 1 !" comb_7|apertado~0_combout $end
$var wire 1 "" comb_10|comb_3|Mux0~0_combout $end
$var wire 1 #" comb_10|comb_3|Mux0~1_combout $end
$var wire 1 $" comb_10|comb_3|Mux0~2_combout $end
$var wire 1 %" comb_10|comb_3|Mux0~3_combout $end
$var wire 1 &" comb_10|comb_3|Mux0~4_combout $end
$var wire 1 '" sensor~input_o $end
$var wire 1 (" segurar~input_o $end
$var wire 1 )" comb_13|clear~0_combout $end
$var wire 1 *" comb_13|comb_10|Q~q $end
$var wire 1 +" comb_13|comb_11|Q~q $end
$var wire 1 ," comb_13|comb_13|Q~q $end
$var wire 1 -" comb_13|comb_15|Q~q $end
$var wire 1 ." comb_11|clock~combout $end
$var wire 1 /" comb_11|comb_4|Q~0_combout $end
$var wire 1 0" comb_11|comb_4|Q~q $end
$var wire 1 1" comb_3|du~5_combout $end
$var wire 1 2" botoes[0]~input_o $end
$var wire 1 3" comb_6|comb_3|s1~0_combout $end
$var wire 1 4" comb_3|du[1]~0_combout $end
$var wire 1 5" comb_3|du[3]~1_combout $end
$var wire 1 6" comb_3|du[4]~2_combout $end
$var wire 1 7" comb_3|du[5]~3_combout $end
$var wire 1 8" comb_3|du[6]~4_combout $end
$var wire 1 9" comb_3|du [6] $end
$var wire 1 :" comb_3|du [5] $end
$var wire 1 ;" comb_3|du [4] $end
$var wire 1 <" comb_3|du [3] $end
$var wire 1 =" comb_3|du [2] $end
$var wire 1 >" comb_3|du [1] $end
$var wire 1 ?" comb_3|du [0] $end
$var wire 1 @" comb_3|dd [6] $end
$var wire 1 A" comb_3|dd [5] $end
$var wire 1 B" comb_3|dd [4] $end
$var wire 1 C" comb_3|dd [3] $end
$var wire 1 D" comb_3|dd [2] $end
$var wire 1 E" comb_3|dd [1] $end
$var wire 1 F" comb_3|dd [0] $end
$var wire 1 G" comb_9|fio [15] $end
$var wire 1 H" comb_9|fio [14] $end
$var wire 1 I" comb_9|fio [13] $end
$var wire 1 J" comb_9|fio [12] $end
$var wire 1 K" comb_9|fio [11] $end
$var wire 1 L" comb_9|fio [10] $end
$var wire 1 M" comb_9|fio [9] $end
$var wire 1 N" comb_9|fio [8] $end
$var wire 1 O" comb_9|fio [7] $end
$var wire 1 P" comb_9|fio [6] $end
$var wire 1 Q" comb_9|fio [5] $end
$var wire 1 R" comb_9|fio [4] $end
$var wire 1 S" comb_9|fio [3] $end
$var wire 1 T" comb_9|fio [2] $end
$var wire 1 U" comb_9|fio [1] $end
$var wire 1 V" comb_9|fio [0] $end
$var wire 1 W" comb_8|fio [15] $end
$var wire 1 X" comb_8|fio [14] $end
$var wire 1 Y" comb_8|fio [13] $end
$var wire 1 Z" comb_8|fio [12] $end
$var wire 1 [" comb_8|fio [11] $end
$var wire 1 \" comb_8|fio [10] $end
$var wire 1 ]" comb_8|fio [9] $end
$var wire 1 ^" comb_8|fio [8] $end
$var wire 1 _" comb_8|fio [7] $end
$var wire 1 `" comb_8|fio [6] $end
$var wire 1 a" comb_8|fio [5] $end
$var wire 1 b" comb_8|fio [4] $end
$var wire 1 c" comb_8|fio [3] $end
$var wire 1 d" comb_8|fio [2] $end
$var wire 1 e" comb_8|fio [1] $end
$var wire 1 f" comb_8|fio [0] $end
$upscope $end
$upscope $end
$enddefinitions $end
#0
$dumpvars
b0 !
0"
0#
0$
0%
0&
0'
0+
0*
0)
0(
12
11
10
1/
1.
1-
0,
19
18
17
16
15
14
03
0I
0H
0G
0F
0E
0D
0C
0B
0A
0@
0?
0>
0=
0<
0;
0:
0J
1K
xL
1M
1N
1O
0P
0Q
0R
0S
0T
0U
0V
0W
0X
0Y
0Z
0[
0\
0]
0^
0_
0`
1a
1b
1c
1d
1e
1f
0g
1h
1i
1j
1k
1l
1m
0n
0o
0p
0q
0r
0s
0t
0u
0v
0w
0x
0y
1z
0{
1|
0}
0~
1!!
0"!
0#!
1$!
0%!
0&!
0'!
1(!
0)!
0*!
1+!
0,!
1-!
1.!
0/!
00!
11!
02!
03!
04!
15!
06!
07!
18!
09!
1:!
0;!
0<!
1=!
0>!
0?!
1@!
0A!
0B!
0C!
1D!
0E!
0F!
1G!
0H!
1I!
1J!
0K!
1L!
0M!
0N!
0O!
1P!
1Q!
1R!
1S!
1T!
1U!
1V!
1W!
1X!
0Y!
1Z!
0[!
1\!
0]!
0^!
0_!
0`!
0a!
1b!
0c!
0d!
1e!
0f!
0g!
1h!
1i!
1j!
0k!
1l!
1m!
0n!
1o!
1p!
1q!
0r!
0s!
1t!
1u!
0v!
0w!
1x!
0y!
1z!
0{!
0|!
0}!
1~!
1!"
0""
0#"
0$"
0%"
0&"
0'"
0("
1)"
0*"
0+"
0,"
0-"
0."
1/"
00"
11"
02"
13"
14"
15"
16"
17"
08"
1?"
z>"
1="
z<"
z;"
z:"
z9"
1F"
zE"
zD"
zC"
zB"
zA"
z@"
zV"
zU"
1T"
1S"
1R"
1Q"
1P"
1O"
1N"
1M"
1L"
1K"
1J"
1I"
1H"
1G"
1f"
1e"
1d"
1c"
1b"
1a"
1`"
z_"
z^"
z]"
z\"
z["
zZ"
zY"
zX"
zW"
$end
#10000
1#
1$
1s
1t
1u
1M!
0L!
#20000
0$
0t
0u
#30000
1$
1t
1u
0M!
1L!
#40000
0$
0t
0u
#50000
1$
1t
1u
1M!
0L!
#60000
b1000000000000000 !
0$
1O!
0t
0u
#70000
1$
1t
1u
0M!
1L!
#80000
b0 !
0$
0O!
0t
0u
#90000
1$
1t
1u
1M!
0L!
#100000
0$
0t
0u
#110000
1$
1t
1u
0M!
1L!
#120000
b10000 !
0$
1"!
0t
0$!
0u
1U
0c"
0d"
0e"
0f"
0U!
0P"
0Q"
1E
0K"
0L"
0M"
0N"
1,!
0O"
0!"
1Y!
1c!
1d!
0\!
0e!
0)"
12!
19!
0G"
0H"
0I"
0J"
1w!
1A!
1H!
0:!
0i!
1v!
0J!
0I!
#130000
1$
1t
1u
1M!
1*"
0z!
0x!
#140000
b0 !
0$
0"!
0t
0u
#150000
1$
1t
1u
1+"
#160000
1"
0$
1v
0t
0u
#170000
1$
1t
1u
1,"
#180000
0$
0t
0u
#190000
1$
1t
1u
1-"
1."
0u
10"
1o
01"
1`!
1%!
1+
07"
06"
05"
0?"
0/"
1x!
0a
0d
0e
0f
0-!
04
05
06
09
#200000
0$
0t
0."
#210000
1$
1t
1."
00"
1y!
1p
0o
0`!
1y
0%!
0+
1*
18"
16"
15"
0="
1?"
1/"
1a
0c
1d
1e
1g
13
15
16
07
19
#220000
0$
0t
0."
#230000
1$
1t
1."
10"
1o
1%!
1~
0y
1+
06"
1="
0/"
1z!
0x!
1c
0e
05
17
#240000
0$
0t
0."
#250000
1$
1t
1."
00"
1{!
0y!
0p
1q
0o
1[!
1#!
0~
1""
1i!
0.!
0%!
0+
1)
0*
17"
05"
0?"
1/"
0a
0d
1f
1-!
1K!
0v!
1&"
1$!
14
06
09
1\!
0U
0""
1c"
1d"
1e"
1f"
1U!
1P"
1Q"
1)"
1.!
0E
0L!
0K!
1K"
1L"
1M"
1N"
0,!
1O"
1!"
0Y!
0c!
0d!
0&"
1e!
0[!
02!
09!
1G"
1H"
1I"
1J"
0w!
0A!
0H!
1:!
0."
0z!
1x!
1I!
1J!
0-"
0*"
0+"
0,"
1u
#260000
1&
0$
1("
0t
0u
#270000
1$
1t
1u
0M!
1L!
#280000
b1000 !
0&
0$
1}
0("
0t
0!!
0u
1T
0d"
0e"
0f"
0Z!
0R!
0P"
0Q"
0R"
1F
1%!
0K"
0L"
0M"
0N"
1,!
0O"
1Y!
0X!
0T!
1c!
1d!
0e!
0!"
1[!
0-!
12!
19!
0G"
0H"
0I"
0J"
0\!
1A!
1H!
0:!
0.!
0)"
1\!
1w!
1K!
0I!
0J!
0L!
1]!
#290000
1$
1t
1u
1*"
#300000
b0 !
0$
0}
0t
0u
#310000
1$
1t
1u
1+"
#320000
0$
0t
0u
#330000
1$
1t
1u
1,"
#340000
0$
0t
0u
#350000
1$
1t
1u
1-"
1."
0u
10"
0{!
1y!
1p
0q
1o
0#!
1~
1%"
0i!
1.!
0d!
1+
0)
1*
07"
15"
1?"
0/"
1a
1d
0f
1e!
0K!
1v!
1&"
1!!
04
16
19
0T
0%"
1d"
1e"
1f"
1Z!
1R!
1P"
1Q"
1R"
1)"
1i!
0F
1L!
0v!
0%!
1K"
1L"
1M"
1N"
1O"
0Y!
1X!
1T!
0c!
0&"
0)"
1!"
0[!
0,!
02!
09!
1G"
1H"
1I"
1J"
0A!
0H!
1:!
1-!
1)"
0w!
1J!
1I!
0."
1z!
0x!
0-"
0*"
0+"
0,"
1u
#360000
0$
0t
0u
#370000
1$
1t
1u
1M!
0L!
#380000
0$
0t
0u
#390000
1$
1t
1u
0M!
1L!
#400000
0$
0t
0u
#410000
1$
1t
1u
1M!
0L!
#420000
0$
0t
0u
#430000
1$
1t
1u
0M!
1L!
#440000
b1 !
0$
12"
0t
03"
0u
1Q
1""
0!"
0P"
0Q"
0R"
0S"
0T"
1w
1I
1{
1%!
0K"
0L"
0M"
0N"
0O"
0)"
1w!
1,!
12!
19!
0G"
0H"
0I"
0J"
0|
0z!
1x!
0.!
1A!
1H!
0:!
0-!
0J!
0I!
1K!
0L!
#450000
b10000001 !
b1000000010000001 !
b1000000010000000 !
1$
02"
10!
1O!
1t
0P!
01!
1u
1X
1`
0`"
0a"
0b"
0Z!
0Q!
0q!
0p!
0m!
0l!
0V!
1:
1B
1k!
0j!
0W!
1n!
1r!
0X!
0T!
1f!
0c"
0d"
0e"
0f"
1c!
1d!
0o!
1g!
0\!
0h!
0u!
0e!
0i!
1v!
1*"
#460000
b1000000000000000 !
b0 !
0$
00!
0O!
0t
0u
#470000
1$
1t
1u
1+"
#480000
0$
0t
0u
#490000
1$
1t
1u
1,"
#500000
0$
0t
0u
#510000
1$
1t
1u
1-"
1."
0u
00"
0o
1s!
0~
1y
0w
0+
16"
0="
1/"
0x!
0c
1e
0t!
15
07
#520000
0$
0t
0."
#530000
1$
1t
1."
10"
0y!
0p
1o
1`!
1|
0y
0s!
1w
1+
0*
08"
06"
05"
1="
0?"
0/"
0a
1c
0d
0e
0g
0|
1.!
03
05
06
17
09
0K!
0.!
1K!
1L!
0L!
#540000
0$
0t
0."
#550000
1$
1t
1."
00"
0o
11"
1&"
1s!
0`!
0w
0+
17"
16"
15"
1?"
1/"
1z!
1x!
1a
1d
1e
1f
1|
1)"
13"
14
15
16
19
0Q
0""
1P"
1Q"
1R"
1S"
1T"
1.!
0I
0K!
0{
0%!
0,!
1O"
0&"
0)"
1-!
1L!
0-"
0*"
0+"
0,"
0."
1u
1*"
#560000
0$
0t
0u
#570000
1$
1t
1u
1M!
1+"
0z!
0x!
#580000
0$
0t
0u
#590000
1$
1t
1u
1,"
#600000
0$
0t
0u
#610000
1$
1t
1u
1-"
1."
0u
10"
1o
01"
0s!
1`!
1+
07"
06"
05"
0?"
0/"
1x!
0a
0d
0e
0f
04
05
06
09
#620000
0$
0t
0."
#630000
1$
1t
1."
00"
1y!
1p
0o
1t!
0`!
1y
1s!
0+
1*
18"
16"
15"
0="
1?"
1/"
1a
0c
1d
1e
1g
0t!
13
15
16
07
19
#640000
0$
0t
0."
#650000
1$
1t
1."
10"
1o
0s!
1~
0y
1+
06"
1="
0/"
1z!
0x!
1c
0e
1t!
05
17
#660000
0$
0t
0."
#670000
1$
1t
1."
00"
1{!
0y!
0p
1q
0o
0t!
1#!
0~
1%"
1u!
1s!
0+
1)
0*
17"
05"
0?"
1/"
0a
0d
1f
0u!
14
06
09
#680000
0$
0t
0."
#690000
1$
1t
1."
10"
1o
0s!
1'!
0#!
1+
15"
04"
1?"
0/"
1x!
1a
0b
1d
16
08
19
#700000
0$
0t
0."
#710000
1$
1t
1."
00"
1y!
1p
0o
1t!
1)!
0'!
1s!
0+
1*
16"
1/"
1e
0t!
1u!
15
0u!
#720000
0$
0t
0."
#730000
1$
1t
1."
10"
1o
1&"
0s!
1[!
1/!
0)!
1+
08"
07"
06"
05"
14"
0/"
0z!
0x!
1^!
1b
0d
0e
0f
0g
11!
1t!
1)"
03
04
05
06
18
0X
1u!
0%"
1K"
1L"
1M"
1N"
0B
02!
09!
1G"
1H"
1I"
1J"
0&"
0)"
0A!
0H!
1:!
1I!
1J!
0-"
0*"
0+"
0,"
0."
1u
1*"
#740000
0$
0t
0u
#750000
1$
1t
1u
1+"
#760000
1%
0$
1P
0t
0u
#770000
b1000000 !
0%
1$
1*!
0P
1t
0+!
1u
1W
1#"
0S!
0K"
0L"
0M"
0N"
0O"
1C
1,!
12!
19!
0G"
0H"
0I"
0J"
1A!
1H!
0:!
0-!
0.!
0I!
0J!
1K!
1,"
#780000
b0 !
0$
0*!
0t
0u
#790000
1$
1t
1u
1-"
1."
0u
00"
0{!
0y!
1_!
1r
0p
0q
0o
0#"
1|!
0v!
0/!
0t!
0[!
1-!
0u!
1.!
1s!
0,!
0+
0)
0*
1(
18"
17"
16"
15"
1\!
1/"
1d
1e
1f
1g
1v!
13
14
15
16
0\!
0L!
1L!
#800000
0$
0t
0."
#810000
1$
1t
1."
10"
1o
0|!
0s!
13!
1,!
1+
06"
0/"
1x!
0e
05
#820000
0$
0t
0."
#830000
1$
1t
1."
00"
1y!
1p
0o
1t!
16!
03!
0-!
1s!
0,!
0+
1*
0F"
08"
16"
1/"
1e
0g
0h
0k
0l
0m
1-!
0t!
0-
0.
0/
02
03
15
#840000
0$
0t
0."
#850000
1$
1t
1."
10"
1o
0s!
1;!
06!
1,!
1+
07"
06"
05"
0?"
0/"
1z!
0x!
0a
0d
0e
0f
0-!
1t!
04
05
06
09
#860000
0$
0t
0."
#870000
1$
1t
1."
00"
1{!
0y!
0p
1q
0o
0t!
1>!
0;!
1-!
1%"
1u!
0.!
1s!
0,!
0+
1)
0*
18"
16"
15"
0="
1?"
1/"
1a
0c
1d
1e
1g
0v!
1.!
0u!
13
15
16
07
19
1v!
0L!
1L!
#880000
0$
0t
0."
#890000
1$
1t
1."
10"
1o
0s!
1B!
0>!
1,!
1+
06"
1="
0/"
1x!
1c
0e
05
17
#900000
0$
0t
0."
#910000
1$
1t
1."
00"
1y!
1p
0o
1t!
1E!
0B!
0-!
1s!
0,!
0+
1*
17"
05"
0?"
1/"
0a
0d
1f
1-!
0t!
0.!
1u!
14
06
09
0v!
0u!
1.!
1v!
0L!
1L!
#920000
0$
0t
0."
#930000
1$
1t
1."
10"
1o
1&"
0s!
1[!
1N!
0E!
1,!
1+
15"
04"
1?"
0/"
0z!
0x!
1a
0b
1d
0-!
1P!
1t!
1)"
16
08
19
1\!
0`
1u!
0%"
1q!
1p!
1m!
1l!
1V!
1Q!
0.!
0:
1X!
0k!
1j!
1`"
1W!
0n!
0r!
0&"
0v!
0)"
1o!
0g!
0L!
1h!
1i!
0-"
0*"
0+"
0,"
0."
1u
1*"
#940000
0$
0t
0u
#950000
1$
1t
1u
0M!
1+"
1z!
1x!
#960000
0$
0t
0u
#970000
1$
1t
1u
1,"
#980000
0$
0t
0u
#990000
b1000000000000000 !
1$
1O!
1t
1u
1-"
1."
0u
00"
0o
0N!
1E!
0,!
0+
05"
14"
0?"
1/"
0x!
0a
1b
0d
1-!
0P!
06
18
09
1`
1%"
1s!
0q!
0p!
0m!
0l!
0V!
0Q!
1.!
1:
0X!
0j!
0`"
0W!
1n!
1r!
0t!
0u!
0o!
1g!
1k!
0[!
0h!
1v!
0\!
0i!
#1000000
b0 !
0$
0O!
0t
0."
#1010000
1$
1t
1."
10"
0y!
0p
1o
0E!
1B!
0s!
1,!
1+
0*
07"
15"
1?"
0/"
1a
1d
0f
04
16
19
#1020000
0$
0t
0."
#1030000
1$
1t
1."
00"
0o
1s!
0B!
1>!
0,!
0+
16"
0="
1/"
0z!
1x!
0c
1e
15
07
#1040000
0$
0t
0."
#1050000
1$
1t
1."
10"
0{!
1y!
1p
0q
1o
1&"
0>!
1;!
0%"
0s!
1,!
1+
0)
1*
08"
06"
05"
1="
0?"
0/"
0a
1c
0d
0e
0g
0-!
1t!
0&"
1)"
03
05
06
17
09
0)"
0-"
0*"
0+"
0,"
0."
1u
1*"
#1060000
0$
0t
0u
#1070000
1$
1t
1u
1+"
#1080000
0$
0t
0u
#1090000
1$
1t
1u
1,"
#1100000
0$
0t
0u
#1110000
1$
1t
1u
1-"
1."
0u
00"
0o
1s!
0;!
16!
0,!
0+
17"
16"
15"
1?"
1/"
0x!
1a
1d
1e
1f
1-!
0t!
14
15
16
19
#1120000
0$
0t
0."
#1130000
1$
1t
1."
10"
0y!
0p
1o
06!
13!
0s!
1,!
1+
0*
1F"
18"
06"
0/"
0e
1g
1h
1k
1l
1m
1-
1.
1/
12
13
05
#1140000
0$
0t
0."
#1150000
1$
1t
1."
00"
0o
1|!
1s!
03!
0,!
0+
16"
1/"
1z!
1x!
0^!
1e
15
#1160000
0$
0t
0."
#1170000
1$
1t
1."
10"
1{!
1y!
0_!
0r
1p
1q
1o
1#"
0|!
0K!
1/!
1[!
0s!
1,!
1+
1)
1*
0(
08"
07"
06"
05"
0/"
0d
0e
0f
0g
0-!
1t!
03
04
05
06
1L!
1u!
0.!
1K!
0L!
#1180000
0$
0t
0."
#1190000
1$
1t
1."
00"
0o
1&"
1s!
0[!
0/!
0,!
1)!
0+
18"
17"
16"
15"
04"
1/"
0x!
0b
1d
1e
1f
1g
1+!
1-!
0t!
1)"
13
14
15
16
08
0W
0u!
1.!
0#"
1S!
1K"
1L"
1M"
1N"
1O"
0C
02!
09!
1G"
1H"
1I"
1J"
0&"
0K!
0)"
0A!
0H!
1:!
1L!
1I!
1J!
0-"
0*"
0+"
0,"
0."
1u
1*"
#1200000
0$
0t
0u
#1210000
1$
1t
1u
1M!
1+"
1x!
#1220000
0$
0t
0u
#1230000
1$
1t
1u
1,"
#1240000
0$
0t
0u
#1250000
1$
1t
1u
1-"
1."
0u
10"
1o
0s!
1[!
1/!
0)!
1+
08"
07"
06"
05"
14"
0/"
0z!
0x!
1^!
1b
0d
0e
0f
0g
1t!
03
04
05
06
18
1u!
#1260000
0$
0t
0."
#1270000
1$
1t
1."
00"
0{!
0y!
1_!
1r
0p
0q
0o
1|!
0v!
0/!
0t!
0[!
0u!
1s!
0+
0)
0*
1(
18"
17"
16"
15"
1\!
1/"
1d
1e
1f
1g
1v!
13
14
15
16
0\!
0L!
1L!
#1280000
0$
0t
0."
#1290000
1$
1t
1."
10"
1o
0|!
0s!
13!
1+
06"
0/"
1x!
0e
05
#1300000
0$
0t
0."
#1310000
1$
1t
1."
00"
1y!
1p
0o
1t!
16!
03!
1s!
0+
1*
0F"
08"
16"
1/"
1e
0g
0h
0k
0l
0m
0t!
0-
0.
0/
02
03
15
#1320000
0$
0t
0."
#1330000
1$
1t
1."
10"
1o
0s!
1;!
06!
1+
07"
06"
05"
0?"
0/"
1z!
0x!
0a
0d
0e
0f
1t!
04
05
06
09
#1340000
0$
0t
0."
#1350000
1$
1t
1."
00"
1{!
0y!
0p
1q
0o
0t!
1>!
0;!
1%"
1u!
1s!
0+
1)
0*
18"
16"
15"
0="
1?"
1/"
1a
0c
1d
1e
1g
0v!
0u!
13
15
16
07
19
1v!
0L!
1L!
#1360000
0$
0t
0."
#1370000
1$
1t
1."
10"
1o
0s!
1B!
0>!
1+
06"
1="
0/"
1x!
1c
0e
05
17
#1380000
0$
0t
0."
#1390000
1$
1t
1."
00"
1y!
1p
0o
1t!
1E!
0B!
1s!
0+
1*
17"
05"
0?"
1/"
0a
0d
1f
0t!
1u!
14
06
09
0v!
0u!
1v!
0L!
1L!
#1400000
0$
0t
0."
#1410000
1$
1t
1."
10"
1o
1&"
0s!
1[!
1N!
0E!
1+
15"
04"
1?"
0/"
0z!
0x!
1a
0b
1d
1P!
1t!
1)"
16
08
19
1\!
0`
1u!
0%"
1q!
1p!
1m!
1l!
1Z!
1V!
1Q!
0:
1X!
1T!
0k!
1j!
1`"
1a"
1b"
1W!
0n!
0r!
0&"
0v!
0)"
1o!
0g!
0f!
1c"
1d"
1e"
1f"
1!"
0[!
0L!
0\!
1)"
0c!
0d!
1h!
1\!
0w!
1i!
1e!
0."
0-"
0*"
0+"
0,"
1u
#1420000
0$
0t
0u
#1430000
1$
1t
1u
0M!
1L!
#1440000
0$
0t
0u
#1450000
1$
1t
1u
1M!
0L!
#1460000
0$
0t
0u
#1470000
1$
1t
1u
0M!
1L!
