MUX16/simulation/qsim/Mux16.msim.vcd
$comment
	File created using the following command:
		vcd file Mux16.msim.vcd -direction
$end
$date
	Wed Dec 02 14:37:34 2020
$end
$version
	ModelSim Version 2020.1
$end
$timescale
	1ps
$end

$scope module Mux16_vlg_vec_tst $end
$var reg 16 ! in [15:0] $end
$var reg 4 " sel [3:0] $end
$var wire 1 # out $end

$scope module i1 $end
$var wire 1 $ gnd $end
$var wire 1 % vcc $end
$var wire 1 & unknown $end
$var tri1 1 ' devclrn $end
$var tri1 1 ( devpor $end
$var tri1 1 ) devoe $end
$var wire 1 * out~output_o $end
$var wire 1 + in[0]~input_o $end
$var wire 1 , in[1]~input_o $end
$var wire 1 - in[2]~input_o $end
$var wire 1 . in[3]~input_o $end
$var wire 1 / sel[0]~input_o $end
$var wire 1 0 sel[1]~input_o $end
$var wire 1 1 Mux0~0_combout $end
$var wire 1 2 in[4]~input_o $end
$var wire 1 3 in[5]~input_o $end
$var wire 1 4 in[6]~input_o $end
$var wire 1 5 in[7]~input_o $end
$var wire 1 6 Mux0~1_combout $end
$var wire 1 7 in[8]~input_o $end
$var wire 1 8 in[9]~input_o $end
$var wire 1 9 in[10]~input_o $end
$var wire 1 : in[11]~input_o $end
$var wire 1 ; Mux0~2_combout $end
$var wire 1 < in[12]~input_o $end
$var wire 1 = in[13]~input_o $end
$var wire 1 > in[14]~input_o $end
$var wire 1 ? in[15]~input_o $end
$var wire 1 @ Mux0~3_combout $end
$var wire 1 A sel[2]~input_o $end
$var wire 1 B sel[3]~input_o $end
$var wire 1 C Mux0~4_combout $end
$upscope $end
$upscope $end
$enddefinitions $end
#0
$dumpvars
b101010101010100 !
b0 "
0#
0$
1%
x&
1'
1(
1)
0*
0+
0,
1-
0.
0/
00
01
12
03
14
05
16
17
08
19
0:
1;
1<
0=
1>
0?
1@
0A
0B
0C
$end
#10000
b1 "
1/
0@
0;
06
#20000
b11 "
b10 "
0/
10
1@
1;
16
11
1C
1*
1#
#30000
b11 "
1/
0@
0;
06
01
0C
0*
0#
#40000
b111 "
b101 "
b100 "
0/
00
1A
1@
1;
16
1C
1*
1#
#50000
b101 "
1/
0@
0;
06
0C
0*
0#
#60000
b111 "
b110 "
0/
10
1@
1;
16
11
1C
1*
1#
#70000
b111 "
1/
0@
0;
06
01
0C
0*
0#
#80000
b1111 "
b1011 "
b1001 "
b1000 "
0/
00
0A
1B
1@
1;
16
1C
1*
1#
#90000
b1001 "
1/
0@
0;
06
0C
0*
0#
#100000
b1011 "
b1010 "
0/
10
1@
1;
16
11
1C
1*
1#
#110000
b1011 "
1/
0@
0;
06
01
0C
0*
0#
#120000
b1111 "
b1101 "
b1100 "
0/
00
1A
1@
1;
16
1C
1*
1#
#130000
b1101 "
1/
0@
0;
06
0C
0*
0#
#140000
b1111 "
b1110 "
0/
10
1@
1;
16
11
1C
1*
1#
#150000
b1111 "
1/
0@
0;
06
01
0C
0*
0#
#160000
b111 "
b11 "
b1 "
b0 "
0/
00
0A
0B
1@
1;
16
#170000
b1 "
1/
0@
0;
06
#180000
b11 "
b10 "
0/
10
1@
1;
16
11
1C
1*
1#
#190000
b11 "
1/
0@
0;
06
01
0C
0*
0#
#200000
b111 "
b101 "
b100 "
0/
00
1A
1@
1;
16
1C
1*
1#
#210000
b101 "
1/
0@
0;
06
0C
0*
0#
#220000
b111 "
b110 "
0/
10
1@
1;
16
11
1C
1*
1#
#230000
b111 "
1/
0@
0;
06
01
0C
0*
0#
#240000
b1111 "
b1011 "
b1001 "
b1000 "
0/
00
0A
1B
1@
1;
16
1C
1*
1#
#250000
b1001 "
1/
0@
0;
06
0C
0*
0#
#260000
b1011 "
b1010 "
0/
10
1@
1;
16
11
1C
1*
1#
#270000
b1011 "
1/
0@
0;
06
01
0C
0*
0#
#280000
b1111 "
b1101 "
b1100 "
0/
00
1A
1@
1;
16
1C
1*
1#
#290000
b1101 "
1/
0@
0;
06
0C
0*
0#
#300000
b1111 "
b1110 "
0/
10
1@
1;
16
11
1C
1*
1#
#310000
b1111 "
1/
0@
0;
06
01
0C
0*
0#
#320000
b111 "
b11 "
b1 "
b0 "
0/
00
0A
0B
1@
1;
16
#330000
b1 "
1/
0@
0;
06
#340000
b11 "
b10 "
0/
10
1@
1;
16
11
1C
1*
1#
#350000
b11 "
1/
0@
0;
06
01
0C
0*
0#
#360000
b111 "
b101 "
b100 "
0/
00
1A
1@
1;
16
1C
1*
1#
#370000
b101 "
1/
0@
0;
06
0C
0*
0#
#380000
b111 "
b110 "
0/
10
1@
1;
16
11
1C
1*
1#
#390000
b111 "
1/
0@
0;
06
01
0C
0*
0#
#400000
b1111 "
b1011 "
b1001 "
b1000 "
0/
00
0A
1B
1@
1;
16
1C
1*
1#
#410000
b1001 "
1/
0@
0;
06
0C
0*
0#
#420000
b1011 "
b1010 "
0/
10
1@
1;
16
11
1C
1*
1#
#430000
b1011 "
1/
0@
0;
06
01
0C
0*
0#
#440000
b1111 "
b1101 "
b1100 "
0/
00
1A
1@
1;
16
1C
1*
1#
#450000
b1101 "
1/
0@
0;
06
0C
0*
0#
#460000
b1111 "
b1110 "
0/
10
1@
1;
16
11
1C
1*
1#
#470000
b1111 "
1/
0@
0;
06
01
0C
0*
0#
#480000
b111 "
b11 "
b1 "
b0 "
0/
00
0A
0B
1@
1;
16
#490000
b1 "
1/
0@
0;
06
#500000
b11 "
b10 "
0/
10
1@
1;
16
11
1C
1*
1#
#510000
b11 "
1/
0@
0;
06
01
0C
0*
0#
#520000
b111 "
b101 "
b100 "
0/
00
1A
1@
1;
16
1C
1*
1#
#530000
b101 "
1/
0@
0;
06
0C
0*
0#
#540000
b111 "
b110 "
0/
10
1@
1;
16
11
1C
1*
1#
#550000
b111 "
1/
0@
0;
06
01
0C
0*
0#
#560000
b1111 "
b1011 "
b1001 "
b1000 "
0/
00
0A
1B
1@
1;
16
1C
1*
1#
#570000
b1001 "
1/
0@
0;
06
0C
0*
0#
#580000
b1011 "
b1010 "
0/
10
1@
1;
16
11
1C
1*
1#
#590000
b1011 "
1/
0@
0;
06
01
0C
0*
0#
#600000
b1111 "
b1101 "
b1100 "
0/
00
1A
1@
1;
16
1C
1*
1#
#610000
b1101 "
1/
0@
0;
06
0C
0*
0#
#620000
b1111 "
b1110 "
0/
10
1@
1;
16
11
1C
1*
1#
#630000
b1111 "
1/
0@
0;
06
01
0C
0*
0#
#640000
b111 "
b11 "
b1 "
b0 "
0/
00
0A
0B
1@
1;
16
#650000
b1 "
1/
0@
0;
06
#660000
b11 "
b10 "
0/
10
1@
1;
16
11
1C
1*
1#
#670000
b11 "
1/
0@
0;
06
01
0C
0*
0#
#680000
b111 "
b101 "
b100 "
0/
00
1A
1@
1;
16
1C
1*
1#
#690000
b101 "
1/
0@
0;
06
0C
0*
0#
#700000
b111 "
b110 "
0/
10
1@
1;
16
11
1C
1*
1#
#710000
b111 "
1/
0@
0;
06
01
0C
0*
0#
#720000
b1111 "
b1011 "
b1001 "
b1000 "
0/
00
0A
1B
1@
1;
16
1C
1*
1#
#730000
b1001 "
1/
0@
0;
06
0C
0*
0#
#740000
b1011 "
b1010 "
0/
10
1@
1;
16
11
1C
1*
1#
#750000
b1011 "
1/
0@
0;
06
01
0C
0*
0#
#760000
b1111 "
b1101 "
b1100 "
0/
00
1A
1@
1;
16
1C
1*
1#
#770000
b1101 "
1/
0@
0;
06
0C
0*
0#
#780000
b1111 "
b1110 "
0/
10
1@
1;
16
11
1C
1*
1#
#790000
b1111 "
1/
0@
0;
06
01
0C
0*
0#
#800000
b111 "
b11 "
b1 "
b0 "
0/
00
0A
0B
1@
1;
16
#810000
b1 "
1/
0@
0;
06
#820000
b11 "
b10 "
0/
10
1@
1;
16
11
1C
1*
1#
#830000
b11 "
1/
0@
0;
06
01
0C
0*
0#
#840000
b111 "
b101 "
b100 "
0/
00
1A
1@
1;
16
1C
1*
1#
#850000
b101 "
1/
0@
0;
06
0C
0*
0#
#860000
b111 "
b110 "
0/
10
1@
1;
16
11
1C
1*
1#
#870000
b111 "
1/
0@
0;
06
01
0C
0*
0#
#880000
b1111 "
b1011 "
b1001 "
b1000 "
0/
00
0A
1B
1@
1;
16
1C
1*
1#
#890000
b1001 "
1/
0@
0;
06
0C
0*
0#
#900000
b1011 "
b1010 "
0/
10
1@
1;
16
11
1C
1*
1#
#910000
b1011 "
1/
0@
0;
06
01
0C
0*
0#
#920000
b1111 "
b1101 "
b1100 "
0/
00
1A
1@
1;
16
1C
1*
1#
#930000
b1101 "
1/
0@
0;
06
0C
0*
0#
#940000
b1111 "
b1110 "
0/
10
1@
1;
16
11
1C
1*
1#
#950000
b1111 "
1/
0@
0;
06
01
0C
0*
0#
#960000
b111 "
b11 "
b1 "
b0 "
0/
00
0A
0B
1@
1;
16
#970000
b1 "
1/
0@
0;
06
#980000
b11 "
b10 "
0/
10
1@
1;
16
11
1C
1*
1#
#990000
b11 "
1/
0@
0;
06
01
0C
0*
0#
